<?xml version="1.0" encoding="UTF-8" standalone="no"?>
<svg xmlns:xlink="http://www.w3.org/1999/xlink" height="51.8px" width="33.6px" xmlns="http://www.w3.org/2000/svg">
  <g transform="matrix(1.0, 0.0, 0.0, 1.0, 16.35, 22.55)">
    <use height="29.75" id="_p1" transform="matrix(1.0, 0.0, 0.0, 1.0, -12.8, -0.5)" width="22.35" xlink:href="#sprite0"/>
  </g>
  <defs/>
</svg>
