<?xml version="1.0" encoding="UTF-8" standalone="no"?>
<svg xmlns:xlink="http://www.w3.org/1999/xlink" height="30.35px" width="96.55px" xmlns="http://www.w3.org/2000/svg">
  <g transform="matrix(1.0, 0.0, 0.0, 1.0, 43.2, 15.55)">
    <use height="27.0" transform="matrix(1.0, 0.0, 0.0, 1.0, -24.6, -15.55)" width="60.1" xlink:href="#shape0"/>
  </g>
  <defs>
    <g id="shape0" transform="matrix(1.0, 0.0, 0.0, 1.0, 24.6, 15.55)">
      <path d="M-23.35 -1.8 L-24.15 -1.7 -24.45 -3.35 -24.3 -4.0 -23.6 -4.9 Q-22.95 -5.15 -22.7 -4.55 L-22.4 -3.85 -18.75 -3.55 -20.75 -2.85 -22.2 -2.4 -23.35 -1.8 -22.2 -2.4 -20.75 -2.85 -18.75 -3.55 -16.55 -3.55 -13.05 -3.65 -9.7 -3.8 -6.6 -3.95 -3.4 -4.1 -0.15 -4.25 Q1.25 -5.05 3.0 -5.2 L6.1 -5.45 9.05 -5.55 12.45 -5.55 15.9 -5.7 18.65 -6.15 20.25 -6.65 21.85 -8.05 24.25 -10.7 26.2 -12.95 27.3 -13.85 Q28.6 -15.05 30.2 -15.5 L30.65 -15.55 Q31.5 -15.55 32.1 -15.0 L33.45 -13.4 Q34.4 -11.85 34.8 -10.05 L35.2 -8.0 35.5 -4.65 35.3 -1.45 34.85 0.6 34.05 3.2 33.7 2.75 33.65 2.85 33.6 2.95 33.55 2.95 33.5 3.0 Q33.2 3.1 33.05 2.8 32.9 2.55 32.9 1.95 L33.1 0.3 33.45 -1.8 33.9 -4.75 34.0 -5.2 34.05 -4.75 33.75 -7.15 33.2 -10.15 32.55 -11.8 31.55 -13.05 30.85 -13.05 29.45 -12.15 29.45 -12.1 29.4 -12.15 28.45 -10.6 28.15 -9.95 27.35 -6.65 Q26.45 -2.65 26.45 0.1 L26.35 3.0 26.3 3.05 25.95 3.1 25.95 3.05 25.75 2.9 25.35 2.5 25.1 1.9 24.85 0.5 24.95 -2.45 25.25 -4.65 24.45 -2.85 24.4 -2.75 24.25 -2.4 24.3 -2.05 23.55 -1.05 23.35 -0.8 22.7 -0.4 22.3 -0.3 22.15 -0.4 22.05 -0.8 Q22.0 -1.3 21.6 -1.6 L20.05 -0.65 19.25 -1.4 18.35 -2.7 Q17.85 -3.35 17.0 -3.5 L14.95 -3.5 13.8 -3.35 10.5 -3.95 8.35 -4.05 4.6 -4.25 1.75 -4.3 0.05 -4.25 -0.15 -4.25 0.05 -4.25 1.75 -4.3 4.6 -4.25 8.35 -4.05 10.5 -3.95 13.8 -3.35 11.55 -2.85 10.3 -3.1 9.4 -3.15 9.1 -3.15 8.95 -3.15 8.85 -3.15 6.25 -3.2 Q6.7 -3.45 6.55 -3.75 6.35 -4.1 5.45 -4.05 4.55 -4.0 4.35 -3.5 L5.35 -3.3 6.0 -3.2 5.85 -3.2 3.6 -3.2 0.8 -3.05 -0.8 -3.0 -3.75 -2.9 -6.4 -2.9 -6.5 -2.9 -6.7 -2.9 -7.55 -2.9 -8.5 -2.9 -10.0 -2.85 -11.5 -2.8 -13.4 -2.75 -13.95 -2.75 -14.45 -2.7 -15.95 -2.65 -18.85 -2.3 -19.55 -2.25 -19.75 -2.2 -19.85 -2.25 -21.85 -1.7 -23.1 -1.2 -24.45 -0.55 -23.35 -1.8 M26.0 -9.35 Q26.2 -10.05 26.75 -10.95 L27.25 -11.6 Q28.15 -12.8 28.7 -13.95 L26.45 -12.15 26.1 -11.8 Q24.7 -10.3 24.5 -9.5 L24.15 -7.35 Q23.9 -5.7 24.0 -5.5 L24.15 -5.35 24.6 -5.3 Q25.1 -5.6 25.55 -7.35 L26.0 -9.35 M31.95 -13.0 L31.55 -13.05 31.95 -13.0 M34.1 -2.95 L34.15 -3.0 34.1 -2.95 M20.25 -4.9 L20.4 -5.45 Q20.15 -5.95 19.55 -5.6 L17.55 -5.4 Q16.3 -5.25 16.75 -4.5 L17.85 -4.25 19.65 -4.45 20.25 -4.9 M7.55 -0.8 Q7.3 -1.4 7.85 -1.1 L8.5 -0.65 8.55 -0.45 8.75 0.65 Q8.9 1.75 9.5 2.9 L10.1 4.15 10.75 5.55 11.2 6.15 11.25 6.45 11.3 6.8 11.25 6.9 10.95 6.8 10.85 6.6 10.1 5.65 10.1 5.55 9.85 4.85 9.6 4.3 8.25 1.3 8.15 1.15 8.05 0.55 7.9 -0.05 7.8 -0.5 7.75 -0.55 7.7 -0.6 7.7 -0.65 7.55 -0.8" fill="#fff7aa" fill-rule="evenodd" stroke="none"/>
      <path d="M34.05 3.2 L33.65 4.2 32.55 6.35 Q31.75 7.85 30.55 8.95 29.05 10.3 27.25 11.15 L25.8 11.45 Q24.9 11.5 24.3 10.95 23.45 10.3 23.0 9.3 L21.9 6.95 21.05 5.05 20.2 3.2 19.2 1.4 18.25 0.8 17.9 2.05 16.75 3.25 15.3 3.9 11.65 4.7 10.65 4.85 11.7 7.15 12.4 8.2 11.6 8.5 11.8 8.4 11.85 8.3 11.9 8.0 Q11.7 7.6 10.65 7.75 9.65 7.9 9.95 8.45 L10.25 8.8 10.4 8.85 10.05 8.9 9.45 7.05 9.6 7.0 Q10.15 6.25 10.1 5.65 L10.85 6.6 10.95 6.8 11.25 6.9 11.3 6.8 11.25 6.45 11.2 6.15 10.75 5.55 10.1 4.15 9.5 2.9 Q8.9 1.75 8.75 0.65 L8.55 -0.45 9.75 2.75 10.35 4.2 13.55 3.05 14.35 3.2 14.95 2.85 Q15.65 2.5 15.8 1.0 15.95 -0.25 15.7 -0.75 L14.7 -2.0 Q13.75 -2.6 12.1 -2.7 L10.6 -3.0 10.3 -3.1 11.55 -2.85 13.8 -3.35 14.35 -3.15 16.05 -2.35 16.7 -1.95 16.95 -1.75 17.6 -1.2 18.05 -0.7 18.25 0.0 18.3 0.2 Q19.1 1.1 20.35 0.45 20.85 0.15 21.05 0.2 L21.25 0.4 21.4 0.9 21.75 1.5 Q22.0 1.8 22.65 1.8 23.3 1.75 23.65 2.15 L24.7 3.5 Q25.5 4.25 26.3 3.8 L26.35 3.8 26.3 5.2 Q26.25 8.5 26.75 9.35 L27.2 9.65 27.85 9.5 28.85 8.5 29.3 8.4 30.15 7.6 30.85 6.2 32.0 4.0 32.75 2.3 32.9 1.95 Q32.9 2.55 33.05 2.8 33.2 3.1 33.5 3.0 L33.45 3.25 33.55 2.95 33.6 2.95 33.65 2.85 33.7 2.75 34.05 3.2 M8.75 5.0 L7.45 5.1 4.9 5.25 2.05 5.4 -1.3 5.5 -5.1 5.55 -7.1 5.5 -10.05 5.45 -12.6 5.4 -15.75 5.2 -19.6 4.7 -21.3 4.3 -22.95 3.6 -24.0 2.7 -24.25 1.95 Q-24.8 0.35 -24.5 -0.45 L-24.45 -0.55 -23.1 -1.2 -21.85 -1.7 -19.85 -2.25 -19.9 -2.2 Q-22.35 -1.7 -21.95 -0.95 L-20.5 -1.05 -21.95 -0.75 -23.7 -0.15 -23.35 1.95 -22.95 2.4 -22.05 2.85 -22.0 2.9 Q-21.45 3.55 -20.6 3.9 -19.25 4.55 -17.7 4.65 L-14.5 4.85 -12.8 4.9 -9.5 5.0 -6.15 4.9 -2.8 4.45 -0.95 4.35 2.1 4.55 2.15 4.75 4.6 4.5 4.6 4.85 6.45 4.15 6.65 4.6 7.0 4.55 7.35 4.7 8.4 4.25 8.75 5.0 M26.3 3.05 L26.35 3.0 26.4 3.05 26.3 3.05 M18.15 0.75 L18.25 0.8 18.3 0.2 18.25 0.8 18.15 0.75 M10.65 4.85 L10.35 4.2 10.65 4.85 M-6.7 -2.9 L-8.05 -2.5 -8.05 -2.35 -6.5 -2.4 -2.65 -2.75 0.0 -2.5 3.1 -2.35 7.15 -2.55 10.35 -2.45 12.95 -2.0 Q14.15 -1.8 14.5 -1.2 L14.65 -0.75 Q13.45 -1.65 11.95 -1.85 L10.55 -2.0 7.95 -2.1 8.5 -0.65 7.85 -1.1 Q7.3 -1.4 7.55 -0.8 L6.65 -1.0 6.2 -0.95 5.75 -2.1 4.65 -2.05 5.05 3.0 6.85 2.95 7.35 2.9 6.35 3.6 -4.7 3.5 -1.8 3.35 -1.75 1.9 -1.5 2.45 -1.2 2.85 Q-0.9 3.2 -0.5 3.0 -0.1 2.75 -0.3 1.1 L-0.8 -0.8 Q-1.0 -1.1 -1.35 -1.05 L-1.95 -0.6 -1.95 -1.95 -6.05 -1.9 -5.9 3.55 -7.4 3.7 -7.45 2.7 -7.35 2.8 -6.55 2.95 Q-6.1 2.7 -6.3 1.3 L-6.7 -0.3 Q-6.95 -0.7 -7.3 -0.65 L-7.6 -0.5 -7.65 -1.8 -11.1 -1.7 -10.55 -1.95 -9.25 -2.15 Q-8.35 -2.35 -7.8 -2.65 L-7.55 -2.9 -6.7 -2.9 M14.9 1.75 L14.6 2.1 14.4 2.1 14.45 2.1 14.4 1.95 14.9 1.75 M11.45 2.55 L11.3 2.75 11.1 2.75 11.3 2.6 11.45 2.55 M5.75 -2.1 L7.95 -2.1 5.75 -2.1 M3.2 0.95 L3.35 1.3 3.55 2.3 3.75 2.45 4.05 2.45 Q4.55 2.2 4.35 0.95 L3.95 -0.5 Q3.25 -1.75 3.05 -1.1 L3.05 -0.85 3.0 -2.0 0.1 -2.0 0.25 3.2 3.35 3.1 3.2 0.95 M5.05 3.0 L3.35 3.1 5.05 3.0 M8.15 1.15 L8.0 1.1 7.75 0.9 7.85 0.3 7.9 -0.05 8.05 0.55 8.15 1.15 M7.25 -0.2 L7.05 -0.35 7.25 -0.2 M4.65 -2.05 L3.0 -2.0 4.65 -2.05 M-13.95 -2.75 L-13.4 -2.75 -11.5 -2.8 -10.0 -2.85 Q-11.9 -2.25 -12.7 -2.4 -13.2 -2.4 -13.95 -2.75 M-13.45 -1.6 L-16.05 -1.45 -18.45 -1.3 -19.65 -1.2 -18.75 -1.4 -14.85 -1.9 -13.7 -1.65 -13.45 -1.6 M-7.65 -1.8 L-6.05 -1.9 -7.65 -1.8 M0.1 -2.0 L-1.95 -1.95 0.1 -2.0 M16.05 -2.35 L16.95 -1.75 16.05 -2.35 M-1.8 3.35 L0.25 3.2 -1.8 3.35 M-24.25 1.95 L-24.25 1.8 Q-24.35 0.7 -23.7 -0.15 -24.35 0.7 -24.25 1.8 L-24.25 1.95" fill="#ffb444" fill-rule="evenodd" stroke="none"/>
      <path d="M11.6 8.5 L10.4 8.85 10.25 8.8 9.95 8.45 Q9.65 7.9 10.65 7.75 11.7 7.6 11.9 8.0 L11.85 8.3 11.8 8.4 11.6 8.5 M9.45 7.05 L9.3 6.7 9.2 6.35 8.75 5.0 8.4 4.25 7.35 4.7 7.0 4.55 6.65 4.6 6.45 4.15 4.6 4.85 4.6 4.5 2.15 4.75 2.1 4.55 -0.95 4.35 -2.8 4.45 -6.15 4.9 -9.5 5.0 -12.8 4.9 -14.5 4.85 -17.7 4.65 Q-19.25 4.55 -20.6 3.9 -21.45 3.55 -22.0 2.9 L-18.7 3.4 -16.7 3.55 -14.3 3.65 -11.95 3.75 -9.65 3.7 -7.4 3.7 -7.45 3.85 -7.4 3.7 -5.9 3.55 -4.7 3.5 6.35 3.6 7.35 2.9 7.75 2.9 6.5 -0.2 6.5 -0.25 6.2 -0.95 6.65 -1.0 7.55 -0.8 7.7 -0.65 7.7 -0.6 7.75 -0.55 7.8 -0.5 7.9 -0.05 7.85 0.3 7.75 0.9 8.0 1.1 8.15 1.15 8.25 1.3 9.6 4.3 9.85 4.85 10.1 5.55 10.1 5.65 Q10.15 6.25 9.6 7.0 L9.45 7.05 M26.35 3.0 L26.45 0.1 Q26.45 -2.65 27.35 -6.65 L28.15 -9.95 28.45 -10.6 29.4 -12.15 29.45 -12.1 29.45 -12.15 30.85 -13.05 31.55 -13.05 32.55 -11.8 33.2 -10.15 33.75 -7.15 34.05 -4.75 34.0 -5.2 33.9 -4.75 33.45 -1.8 33.1 0.3 32.9 1.95 32.75 2.3 32.0 4.0 30.85 6.2 30.15 7.6 29.3 8.4 28.85 8.5 27.85 9.5 27.2 9.65 26.75 9.35 Q26.25 8.5 26.3 5.2 L26.35 3.8 26.4 3.05 26.35 3.8 26.3 3.8 Q25.5 4.25 24.7 3.5 L23.65 2.15 Q23.3 1.75 22.65 1.8 22.0 1.8 21.75 1.5 L21.4 0.9 21.25 0.4 21.05 0.2 Q20.85 0.15 20.35 0.45 19.1 1.1 18.3 0.2 L18.25 0.0 18.05 -0.7 17.6 -1.2 16.95 -1.75 16.7 -1.95 16.05 -2.35 14.35 -3.15 13.8 -3.35 14.95 -3.5 17.0 -3.5 Q17.85 -3.35 18.35 -2.7 L19.25 -1.4 20.05 -0.65 21.6 -1.6 Q22.0 -1.3 22.05 -0.8 L22.15 -0.4 22.3 -0.3 22.7 -0.4 23.35 -0.8 23.55 -1.05 24.3 -2.05 24.25 -2.4 24.4 -2.75 24.45 -2.85 25.25 -4.65 24.95 -2.45 24.85 0.5 25.1 1.9 25.35 2.5 25.75 2.9 25.95 3.05 25.95 3.1 26.3 3.05 26.4 3.05 26.35 3.0 M31.05 -6.55 L30.2 -10.45 29.4 -12.15 30.2 -10.45 31.05 -6.55 M30.1 7.3 L28.85 8.5 30.1 7.3 M10.3 -3.1 L10.6 -3.0 12.1 -2.7 Q13.75 -2.6 14.7 -2.0 L15.7 -0.75 Q15.95 -0.25 15.8 1.0 15.65 2.5 14.95 2.85 L14.35 3.2 13.55 3.05 10.35 4.2 9.75 2.75 11.1 2.65 11.3 2.6 11.1 2.75 11.3 2.75 11.45 2.55 11.7 2.55 12.45 2.4 14.15 2.0 14.25 2.0 14.4 1.95 14.45 2.1 14.4 2.1 14.6 2.1 14.9 1.75 15.35 1.35 15.55 0.9 15.6 0.05 15.0 -0.45 14.65 -0.75 14.5 -1.2 Q14.15 -1.8 12.95 -2.0 L10.35 -2.45 7.15 -2.55 3.1 -2.35 0.0 -2.5 -2.65 -2.75 -6.5 -2.4 -8.05 -2.35 -8.05 -2.5 -6.7 -2.9 -6.5 -2.9 -6.4 -2.9 -3.75 -2.9 -0.8 -3.0 0.8 -3.05 3.6 -3.2 5.85 -3.2 6.0 -3.2 6.25 -3.2 8.85 -3.15 8.95 -3.15 9.1 -3.15 9.4 -3.15 10.3 -3.1 M3.05 -0.85 L3.05 -1.1 Q3.25 -1.75 3.95 -0.5 L4.35 0.95 Q4.55 2.2 4.05 2.45 L3.75 2.45 3.55 2.3 3.35 1.3 3.2 0.95 3.05 -0.85 M7.25 -0.2 L7.05 -0.35 7.25 -0.2 M-19.85 -2.25 L-19.75 -2.2 -19.55 -2.25 -18.85 -2.3 -15.95 -2.65 -14.45 -2.7 -13.95 -2.75 Q-13.2 -2.4 -12.7 -2.4 -11.9 -2.25 -10.0 -2.85 L-8.5 -2.9 -7.55 -2.9 -7.8 -2.65 Q-8.35 -2.35 -9.25 -2.15 L-10.55 -1.95 -11.1 -1.7 -11.5 -1.7 -12.65 -1.65 -13.25 -1.65 -13.45 -1.6 -13.7 -1.65 -14.85 -1.9 -18.75 -1.4 -19.65 -1.2 -20.45 -1.05 -20.5 -1.05 -21.95 -0.95 Q-22.35 -1.7 -19.9 -2.2 L-19.85 -2.25 M-7.45 2.7 L-7.6 -0.5 -7.3 -0.65 Q-6.95 -0.7 -6.7 -0.3 L-6.3 1.3 Q-6.1 2.7 -6.55 2.95 L-7.35 2.8 -7.45 2.7 M-1.75 1.9 L-1.8 0.8 -1.95 -0.6 -1.35 -1.05 Q-1.0 -1.1 -0.8 -0.8 L-0.3 1.1 Q-0.1 2.75 -0.5 3.0 -0.9 3.2 -1.2 2.85 L-1.5 2.45 -1.75 1.9 M7.75 2.9 L8.4 4.25 7.75 2.9 M9.2 6.35 L9.3 6.7 9.2 6.35" fill="#af6a03" fill-rule="evenodd" stroke="none"/>
      <path d="M26.0 -9.35 L25.55 -7.35 Q25.1 -5.6 24.6 -5.3 L24.15 -5.35 24.0 -5.5 Q23.9 -5.7 24.15 -7.35 L24.5 -9.5 Q24.7 -10.3 26.1 -11.8 L26.45 -12.15 28.7 -13.95 Q28.15 -12.8 27.25 -11.6 L26.75 -10.95 Q26.2 -10.05 26.0 -9.35 M20.25 -4.9 L19.65 -4.45 17.85 -4.25 16.75 -4.5 Q16.3 -5.25 17.55 -5.4 L19.55 -5.6 Q20.15 -5.95 20.4 -5.45 L20.25 -4.9 M6.0 -3.2 L5.35 -3.3 4.35 -3.5 Q4.55 -4.0 5.45 -4.05 6.35 -4.1 6.55 -3.75 6.7 -3.45 6.25 -3.2 L6.0 -3.2" fill="#ffffff" fill-rule="evenodd" stroke="none"/>
      <path d="M33.5 3.0 L33.55 2.95 33.45 3.25 33.5 3.0 M34.1 -2.95 L34.15 -3.0 34.1 -2.95 M11.7 2.55 L11.45 2.55 11.7 2.55 M-13.25 -1.65 L-13.45 -1.6 -13.25 -1.65" fill="#d27e02" fill-rule="evenodd" stroke="none"/>
      <path d="M-18.75 -3.55 L-22.4 -3.85 -22.7 -4.55 Q-22.95 -5.15 -23.6 -4.9 L-24.3 -4.0 -24.45 -3.35 -24.15 -1.7 -23.35 -1.8 -22.2 -2.4 -20.75 -2.85 -18.75 -3.55 -16.55 -3.55 -13.05 -3.65 -9.7 -3.8 -6.6 -3.95 -3.4 -4.1 -0.15 -4.25 Q1.25 -5.05 3.0 -5.2 L6.1 -5.45 9.05 -5.55 12.45 -5.55 15.9 -5.7 18.65 -6.15 20.25 -6.65 21.85 -8.05 24.25 -10.7 26.2 -12.95 27.3 -13.85 Q28.6 -15.05 30.2 -15.5 L30.65 -15.55 Q31.5 -15.55 32.1 -15.0 L33.45 -13.4 Q34.4 -11.85 34.8 -10.05 L35.2 -8.0 35.5 -4.65 35.3 -1.45 34.85 0.6 34.05 3.2 33.65 4.2 32.55 6.35 Q31.75 7.85 30.55 8.95 29.05 10.3 27.25 11.15 L25.8 11.45 Q24.9 11.5 24.3 10.95 23.45 10.3 23.0 9.3 L21.9 6.95 21.05 5.05 20.2 3.2 19.2 1.4 18.25 0.8 17.9 2.05 16.75 3.25 15.3 3.9 11.65 4.7 10.65 4.85 11.7 7.15 12.4 8.2 11.6 8.5 10.4 8.85 10.05 8.9 9.45 7.05 9.3 6.7 9.2 6.35 8.75 5.0 7.45 5.1 4.9 5.25 2.05 5.4 -1.3 5.5 -5.1 5.55 -7.1 5.5 -10.05 5.45 -12.6 5.4 -15.75 5.2 -19.6 4.7 -21.3 4.3 -22.95 3.6 -24.0 2.7 -24.25 1.95 Q-24.8 0.35 -24.5 -0.45 L-24.45 -0.55 -23.35 -1.8 M26.35 3.0 L26.45 0.1 Q26.45 -2.65 27.35 -6.65 L28.15 -9.95 28.45 -10.6 29.4 -12.15 29.45 -12.1 29.45 -12.15 30.85 -13.05 31.55 -13.05 31.95 -13.0 M29.4 -12.15 L30.2 -10.45 31.05 -6.55 M26.35 3.0 L26.4 3.05 26.35 3.8 26.3 5.2 Q26.25 8.5 26.75 9.35 L27.2 9.65 27.85 9.5 28.85 8.5 30.1 7.3 M18.3 0.2 L18.25 0.8 18.15 0.75 M-0.15 -4.25 L0.05 -4.25 1.75 -4.3 4.6 -4.25 8.35 -4.05 10.5 -3.95 13.8 -3.35 14.35 -3.15 16.05 -2.35 M10.35 4.2 L10.65 4.85 M14.65 -0.75 L15.0 -0.45 15.6 0.05 15.55 0.9 15.35 1.35 14.9 1.75 M14.25 2.0 L14.15 2.0 12.45 2.4 11.7 2.55 11.45 2.55 M11.3 2.6 L11.1 2.65 9.75 2.75 10.35 4.2 M6.2 -0.95 L5.75 -2.1 4.65 -2.05 5.05 3.0 6.85 2.95 7.35 2.9 7.75 2.9 6.5 -0.2 M6.5 -0.25 L6.2 -0.95 M8.5 -0.65 L7.95 -2.1 5.75 -2.1 M3.2 0.95 L3.35 3.1 5.05 3.0 M8.5 -0.65 L8.55 -0.45 9.75 2.75 M14.65 -0.75 Q13.45 -1.65 11.95 -1.85 L10.55 -2.0 7.95 -2.1 M3.0 -2.0 L4.65 -2.05 M3.05 -0.85 L3.0 -2.0 0.1 -2.0 0.25 3.2 3.35 3.1 M16.95 -1.75 L17.6 -1.2 18.05 -0.7 18.25 0.0 18.3 0.2 M-11.1 -1.7 L-11.5 -1.7 -12.65 -1.65 -13.25 -1.65 M-13.45 -1.6 L-16.05 -1.45 -18.45 -1.3 -19.65 -1.2 -20.45 -1.05 -20.5 -1.05 -21.95 -0.75 -23.7 -0.15 -23.35 1.95 -22.95 2.4 -22.05 2.85 -22.0 2.9 -18.7 3.4 -16.7 3.55 -14.3 3.65 -11.95 3.75 -9.65 3.7 -7.4 3.7 -7.45 2.7 -7.6 -0.5 -7.65 -1.8 -11.1 -1.7 M-13.45 -1.6 L-13.25 -1.65 M-7.45 3.85 L-7.4 3.7 -5.9 3.55 -6.05 -1.9 -7.65 -1.8 M-5.9 3.55 L-4.7 3.5 -1.8 3.35 -1.75 1.9 -1.8 0.8 -1.95 -0.6 -1.95 -1.95 -6.05 -1.9 M8.4 4.25 L7.75 2.9 M-1.95 -1.95 L0.1 -2.0 M0.25 3.2 L-1.8 3.35 M16.95 -1.75 L16.05 -2.35 M14.4 1.95 L14.9 1.75 M11.3 2.6 L11.45 2.55 M8.4 4.25 L8.75 5.0 M3.2 0.95 L3.05 -0.85 M-23.7 -0.15 Q-24.35 0.7 -24.25 1.8 L-24.25 1.95" fill="none" stroke="#000000" stroke-linecap="round" stroke-linejoin="round" stroke-opacity="0.4" stroke-width="0.05"/>
    </g>
  </defs>
</svg>
