<?xml version="1.0" encoding="UTF-8" standalone="no"?>
<svg xmlns:xlink="http://www.w3.org/1999/xlink" height="16.15px" width="1.9px" xmlns="http://www.w3.org/2000/svg">
  <g transform="matrix(1.0, 0.0, 0.0, 1.0, -3.45, -11.15)">
    <path d="M5.05 24.95 Q4.8 27.3 4.4 27.3 4.0 27.3 3.7 24.95 3.45 22.6 3.45 19.25 3.45 15.9 3.7 13.5 4.0 11.15 4.4 11.15 4.8 11.15 5.05 13.5 L5.35 19.25 5.05 24.95" fill="#fcf9e0" fill-rule="evenodd" stroke="none"/>
  </g>
</svg>
