<?xml version="1.0" encoding="UTF-8" standalone="no"?>
<svg xmlns:xlink="http://www.w3.org/1999/xlink" height="86.05px" width="107.8px" xmlns="http://www.w3.org/2000/svg">
  <g transform="matrix(1.0, 0.0, 0.0, 1.0, 28.6, 61.95)">
    <use height="65.15" transform="matrix(1.0, 0.0, 0.0, 1.0, -23.05, -49.3)" width="79.55" xlink:href="#shape0"/>
  </g>
  <defs>
    <g id="shape0" transform="matrix(1.0, 0.0, 0.0, 1.0, 23.05, 49.3)">
      <path d="M8.4 -9.75 L29.8 -18.6 13.6 -4.5 56.5 13.35 Q11.05 5.6 1.85 4.95 -0.15 4.55 -2.15 5.35 -12.95 10.1 -23.05 15.85 L-0.15 -2.4 12.3 -32.95 8.4 -9.75 M14.2 -36.55 L21.05 -49.3 18.85 -38.85 14.2 -36.55" fill="#ffff00" fill-rule="evenodd" stroke="none"/>
    </g>
  </defs>
</svg>
