<?xml version="1.0" encoding="UTF-8" standalone="no"?>
<svg xmlns:xlink="http://www.w3.org/1999/xlink" height="19.65px" width="19.65px" xmlns="http://www.w3.org/2000/svg">
  <g transform="matrix(1.0, 0.0, 0.0, 1.0, 8.7, 9.45)">
    <use height="11.0" transform="matrix(1.0, 0.0, 0.0, 1.0, -5.5, -5.5)" width="11.0" xlink:href="#shape0"/>
  </g>
  <defs>
    <g id="shape0" transform="matrix(1.0, 0.0, 0.0, 1.0, 5.5, 5.5)">
      <path d="M5.5 -5.5 L2.65 0.05 5.5 5.5 0.0 2.65 -5.5 5.5 -2.65 0.05 -5.5 -5.45 0.0 -2.65 5.5 -5.5 M1.2 -1.25 Q0.7 -1.7 0.0 -1.7 -0.7 -1.7 -1.25 -1.25 -1.7 -0.7 -1.7 0.0 L-1.25 1.2 Q-0.7 1.7 0.0 1.7 0.7 1.7 1.2 1.2 1.7 0.7 1.7 0.0 1.7 -0.7 1.2 -1.25" fill="#e0e8eb" fill-rule="evenodd" stroke="none"/>
    </g>
  </defs>
</svg>
