<?xml version="1.0" encoding="UTF-8" standalone="no"?>
<svg xmlns:xlink="http://www.w3.org/1999/xlink" height="9.1px" width="7.7px" xmlns="http://www.w3.org/2000/svg">
  <g transform="matrix(1.0, 0.0, 0.0, 1.0, 8.05, 10.15)">
    <path d="M-0.7 -10.15 Q-0.35 -9.95 -0.35 -9.0 -0.4 -8.1 -1.5 -6.55 -2.95 -4.55 -4.85 -4.5 -5.3 -4.55 -5.35 -5.05 -5.3 -7.55 -2.55 -9.35 -1.35 -10.25 -0.7 -10.15 M-7.2 -2.65 L-6.6 -2.55 -6.45 -2.0 -6.75 -1.5 Q-7.15 -1.05 -7.65 -1.05 -8.0 -1.05 -8.05 -1.5 -8.0 -2.55 -7.2 -2.65" fill="#ffffff" fill-rule="evenodd" stroke="none"/>
  </g>
</svg>
