<?xml version="1.0" encoding="UTF-8" standalone="no"?>
<svg xmlns:xlink="http://www.w3.org/1999/xlink" height="6.85px" width="5.05px" xmlns="http://www.w3.org/2000/svg">
  <g transform="matrix(1.0, 0.0, 0.0, 1.0, 7.05, 6.95)">
    <path d="M-6.6 -0.6 L-7.05 -1.2 Q-7.05 -2.1 -4.5 -4.95 -2.0 -7.85 -2.0 -6.5 -2.0 -6.3 -2.35 -6.0 L-3.05 -5.1 -3.75 -3.75 Q-4.7 -1.65 -4.7 -1.0 L-4.95 -0.55 -5.45 -0.1 Q-6.05 -0.1 -6.6 -0.6 M-5.5 -0.8 L-4.85 -2.6 -4.0 -4.35 -3.25 -5.6 -4.95 -3.5 Q-6.35 -1.7 -6.35 -1.35 L-6.3 -1.15 -5.5 -0.8" fill="#ffffff" fill-rule="evenodd" stroke="none"/>
  </g>
</svg>
