<?xml version="1.0" encoding="UTF-8" standalone="no"?>
<svg xmlns:xlink="http://www.w3.org/1999/xlink" height="11.95px" width="4.95px" xmlns="http://www.w3.org/2000/svg">
  <g transform="matrix(1.0, 0.0, 0.0, 1.0, 0.25, 5.65)">
    <path d="M3.15 -0.2 L4.6 -5.65 4.7 0.25 3.15 -0.2 4.7 0.25 -0.25 6.3 -0.25 -1.65 3.15 -0.2 -0.25 6.3 3.15 -0.2" fill="#bcbecb" fill-rule="evenodd" stroke="none"/>
    <path d="M4.6 -5.65 L3.15 -0.2 -0.25 -1.65 4.6 -5.65" fill="#ffffff" fill-rule="evenodd" stroke="none"/>
    <path d="M4.6 -5.65 L3.15 -0.2 4.7 0.25 4.6 -5.65 -0.25 -1.65 3.15 -0.2 -0.25 6.3 4.7 0.25 M-0.25 6.3 L-0.25 -1.65" fill="none" stroke="#000000" stroke-linecap="round" stroke-linejoin="round" stroke-opacity="0.3019608" stroke-width="0.05"/>
  </g>
</svg>
