<?xml version="1.0" encoding="UTF-8" standalone="no"?>
<svg xmlns:xlink="http://www.w3.org/1999/xlink" height="8.3px" width="7.2px" xmlns="http://www.w3.org/2000/svg">
  <g transform="matrix(1.0, 0.0, 0.0, 1.0, -16.7, 21.25)">
    <path d="M16.7 -14.2 Q16.7 -15.1 17.85 -15.1 18.95 -15.1 18.95 -13.85 18.95 -12.95 17.85 -12.95 17.35 -12.95 17.0 -13.55 16.7 -14.0 16.7 -14.2 M18.75 -18.1 Q18.75 -19.45 21.35 -20.8 23.9 -22.15 23.9 -19.5 23.9 -18.8 23.1 -17.75 22.1 -16.55 21.05 -16.55 19.5 -16.55 19.0 -17.25 18.75 -17.6 18.75 -18.1" fill="#ffffff" fill-rule="evenodd" stroke="none"/>
  </g>
</svg>
