<?xml version="1.0" encoding="UTF-8" standalone="no"?>
<svg xmlns:xlink="http://www.w3.org/1999/xlink" height="53.7px" width="61.3px" xmlns="http://www.w3.org/2000/svg">
  <g transform="matrix(1.0, 0.0, 0.0, 1.0, 23.55, 28.2)">
    <use height="27.8" id="_p1" transform="matrix(1.0, 0.0, 0.0, 1.0, -18.35, -13.8)" width="46.2" xlink:href="#sprite0"/>
  </g>
  <defs/>
</svg>
