{
    "meta" : {
        "game":"labrute",
        "decription": "Available weapons for the game Labrute. The min and max damage values are the real values from the original Labrute (source: http://twin.tithom.fr/muxxu/labrute/armes/). Respect the alphabetical order to make the maintenance easier."
        },
    "data" : {
        "bareHands" : {
            "name" : {
                "en":"bare hands",
                "fr":"mains nues",
                "es":"puñetazo"
                },
            "type": "",
            "damageMin" : 0,
            "damageMax" : 2
            },
        "knife" : {
            "name" : {
                "en":"knife",
                "fr":"couteau",
                "es":"cuchillo"
                },
            "type": "fast",
            "damageMin" : 7,
            "damageMax" : 11
            },
        "shuriken" : {
            "name" : {
                "en":"shuriken",
                "fr":"shuriken",
                "es":"shuriken"
                },
            "type": "thrown",
            "damageMin" : 5,
            "damageMax" : 8
            },
        "scimitar" : {
            "name" : {
                "en":"scimitar",
                "fr":"cimeterre",
                "es":"cimetro"
                },
            "type": "sharp",
            "damageMin" : 10,
            "damageMax" : 12
            },
        "stick" : {
            "name" : {
                "en":"stick",
                "fr":"bâton",
                "es":"palo"
                },
            "type": "long",
            "damageMin" : 7,
            "damageMax" : 9
            },
        "sword" : {
            "name" : {
                "en":"sword",
                "fr":"épée",
                "es":"espada"
                },
            "type": "sharp",
            "damageMin" : 25,
            "damageMax" : 30
            }
	}
}

