<?xml version="1.0" encoding="UTF-8" standalone="no"?>
<svg xmlns:xlink="http://www.w3.org/1999/xlink" height="3.95px" width="7.75px" xmlns="http://www.w3.org/2000/svg">
  <g transform="matrix(1.0, 0.0, 0.0, 1.0, 3.85, 2.2)">
    <use height="3.5" transform="matrix(1.0, 0.0, 0.0, 1.0, -3.85, -1.75)" width="7.75" xlink:href="#shape0"/>
  </g>
  <defs>
    <g id="shape0" transform="matrix(1.0, 0.0, 0.0, 1.0, 3.85, 1.75)">
      <path d="M3.65 -0.75 Q2.9 -1.3 1.85 -1.5 0.9 -1.55 0.15 -0.95 L-0.65 -0.15 -2.0 1.15 Q-2.5 1.55 -2.9 1.5 L-3.6 0.7" fill="none" stroke="#000000" stroke-linecap="round" stroke-linejoin="round" stroke-opacity="0.7529412" stroke-width="0.5"/>
    </g>
  </defs>
</svg>
