<?xml version="1.0" encoding="UTF-8" standalone="no"?>
<svg xmlns:xlink="http://www.w3.org/1999/xlink" height="29.85px" width="177.0px" xmlns="http://www.w3.org/2000/svg">
  <g transform="matrix(1.0, 0.0, 0.0, 1.0, 88.5, 14.9)">
    <use height="27.15" id="smc" transform="matrix(1.0, 0.0, 0.0, 1.0, -52.0, -13.55)" width="104.0" xlink:href="#sprite0"/>
    <use height="1.5" transform="matrix(1.0, 0.0, 0.0, 1.0, 4.35, -7.25)" width="1.5" xlink:href="#shape0"/>
  </g>
  <defs>
    <g id="sprite0" transform="matrix(1.0, 0.0, 0.0, 1.0, 52.0, 13.55)">
      <use height="27.15" transform="matrix(1.0, 0.0, 0.0, 1.0, -52.0, -13.55)" width="104.0" xlink:href="#text0"/>
    </g>
    <g id="shape0" transform="matrix(1.0, 0.0, 0.0, 1.0, -4.35, 7.25)">
      <path d="M5.85 -7.25 L5.85 -5.75 4.35 -5.75 4.35 -7.25 5.85 -7.25" fill="#ffffff" fill-opacity="0.0" fill-rule="evenodd" stroke="none"/>
    </g>
  </defs>
</svg>
