<?xml version="1.0" encoding="UTF-8" standalone="no"?>
<svg xmlns:xlink="http://www.w3.org/1999/xlink" height="18.25px" width="13.85px" xmlns="http://www.w3.org/2000/svg">
  <g transform="matrix(1.0, 0.0, 0.0, 1.0, 3.15, 9.5)">
    <use height="18.25" id="_p1" transform="matrix(1.0, 0.0, 0.0, 1.0, -3.15, -9.5)" width="13.85" xlink:href="#sprite0"/>
  </g>
  <defs/>
</svg>
